1.00000 658510584.00000000
2.00000 173575792.00000000
3.00000 174064800.00000000
4.00000 173072600.00000000
5.00000 173185064.00000000
6.00000 117321864.00000000
7.00000 198162696.00000000
8.00000 203450280.00000000
9.00000 163314208.00000000
